{
	"Rule": {
		"prefix": "rule",
		"description": "Create a new rule",
		"body": [
			"rule ${1:RuleName} {",
			"\tguard: ${2},",
			"\tparameters {",
			"\t\t ${3:var map = new Map();}",
			"\t\treturn ${4:map};",
			"\t}",
			"\ttemplate: ${5:template.txt.egl}",
			"\ttarget: ${6:output.txt}",
			"}"
		]
	}
}